{
  "version": "1.0.0-*",
  "buildOptions": {
    "emitEntryPoint": true
  },
  "dependencies": {
    "GAF": "1.0.0-*",
    "GAF.Network": "1.0.0-*",
    "GAF.REST": "1.0.0-*",
    "GAF.ServiceDiscovery": "1.0.0-*",
    "Salesman.RemoteFitness": "1.0.0-*"
  },
    "frameworks": {
      "dnx451": {
        "dependencies": {
          "EntityFramework.Core": "7.0.0-rc1-final"
        },
        "frameworkAssemblies": {
            "System.Configuration": "4.0.0.0"
        }
      }
    }
  }